%YAML 1.1
%TAG !u! tag:unity3d.com,2011:
--- !u!1001 &1383192768999438943
PrefabInstance:
  m_ObjectHideFlags: 0
  serializedVersion: 2
  m_Modification:
    m_TransformParent: {fileID: 0}
    m_Modifications:
    - target: {fileID: 100000, guid: 487ce54cc32ba3f4891fe32f4dbdc5cc, type: 3}
      propertyPath: m_Name
      value: Platform_08
      objectReference: {fileID: 0}
    - target: {fileID: 100000, guid: 487ce54cc32ba3f4891fe32f4dbdc5cc, type: 3}
      propertyPath: m_Layer
      value: 6
      objectReference: {fileID: 0}
    - target: {fileID: 400000, guid: 487ce54cc32ba3f4891fe32f4dbdc5cc, type: 3}
      propertyPath: m_RootOrder
      value: 0
      objectReference: {fileID: 0}
    - target: {fileID: 400000, guid: 487ce54cc32ba3f4891fe32f4dbdc5cc, type: 3}
      propertyPath: m_LocalPosition.x
      value: -24.57808
      objectReference: {fileID: 0}
    - target: {fileID: 400000, guid: 487ce54cc32ba3f4891fe32f4dbdc5cc, type: 3}
      propertyPath: m_LocalPosition.y
      value: 15.8
      objectReference: {fileID: 0}
    - target: {fileID: 400000, guid: 487ce54cc32ba3f4891fe32f4dbdc5cc, type: 3}
      propertyPath: m_LocalPosition.z
      value: -64.58252
      objectReference: {fileID: 0}
    - target: {fileID: 400000, guid: 487ce54cc32ba3f4891fe32f4dbdc5cc, type: 3}
      propertyPath: m_LocalRotation.w
      value: 1
      objectReference: {fileID: 0}
    - target: {fileID: 400000, guid: 487ce54cc32ba3f4891fe32f4dbdc5cc, type: 3}
      propertyPath: m_LocalRotation.x
      value: 0
      objectReference: {fileID: 0}
    - target: {fileID: 400000, guid: 487ce54cc32ba3f4891fe32f4dbdc5cc, type: 3}
      propertyPath: m_LocalRotation.y
      value: 0
      objectReference: {fileID: 0}
    - target: {fileID: 400000, guid: 487ce54cc32ba3f4891fe32f4dbdc5cc, type: 3}
      propertyPath: m_LocalRotation.z
      value: 0
      objectReference: {fileID: 0}
    - target: {fileID: 400000, guid: 487ce54cc32ba3f4891fe32f4dbdc5cc, type: 3}
      propertyPath: m_LocalEulerAnglesHint.x
      value: 0
      objectReference: {fileID: 0}
    - target: {fileID: 400000, guid: 487ce54cc32ba3f4891fe32f4dbdc5cc, type: 3}
      propertyPath: m_LocalEulerAnglesHint.y
      value: 0
      objectReference: {fileID: 0}
    - target: {fileID: 400000, guid: 487ce54cc32ba3f4891fe32f4dbdc5cc, type: 3}
      propertyPath: m_LocalEulerAnglesHint.z
      value: 0
      objectReference: {fileID: 0}
    m_RemovedComponents: []
  m_SourcePrefab: {fileID: 100100000, guid: 487ce54cc32ba3f4891fe32f4dbdc5cc, type: 3}
--- !u!1 &1383192768999341311 stripped
GameObject:
  m_CorrespondingSourceObject: {fileID: 100000, guid: 487ce54cc32ba3f4891fe32f4dbdc5cc, type: 3}
  m_PrefabInstance: {fileID: 1383192768999438943}
  m_PrefabAsset: {fileID: 0}
--- !u!64 &2755900656519738665
MeshCollider:
  m_ObjectHideFlags: 0
  m_CorrespondingSourceObject: {fileID: 0}
  m_PrefabInstance: {fileID: 0}
  m_PrefabAsset: {fileID: 0}
  m_GameObject: {fileID: 1383192768999341311}
  m_Material: {fileID: 0}
  m_IsTrigger: 0
  m_Enabled: 1
  serializedVersion: 4
  m_Convex: 0
  m_CookingOptions: 30
  m_Mesh: {fileID: 4300000, guid: 487ce54cc32ba3f4891fe32f4dbdc5cc, type: 3}
